Introduction to geobr
…
General usage

Available data sets

The geobr package covers 21 spatial data sets, including a variety of political-administrative and statistical areas used in Brazil. You can view what data sets are available using the list_geobr() function.

# Available data sets
datasets <- list_geobr()

print(datasets, n=21)
#> # A tibble: 22 x 4
#>    `function`       geography            years                         source   
#>    <chr>            <chr>                <chr>                         <chr>    
#>  1 `read_country`   Country              1872, 1900, 1911, 1920, 1933~ IBGE     
#>  2 `read_region`    Region               2000, 2001, 2010, 2013, 2014~ IBGE     
#>  3 `read_state`     States               1872, 1900, 1911, 1920, 1933~ IBGE     
#>  4 `read_meso_regi~ Meso region          2000, 2001, 2010, 2013, 2014~ IBGE     
#>  5 `read_micro_reg~ Micro region         2000, 2001, 2010, 2013, 2014~ IBGE     
#>  6 `read_intermedi~ Intermediate region  2017                          IBGE     
#>  7 `read_immediate~ Immediate region     2017                          IBGE     
#>  8 `read_municipal~ Municipality         1872, 1900, 1911, 1920, 1933~ IBGE     
#>  9 `read_weighting~ Census weighting ar~ 2010                          IBGE     
#> 10 `read_census_tr~ Census tract (setor~ 2000, 2010                    IBGE     
#> 11 `read_municipal~ Municipality seats ~ 1872, 1900, 1911, 1920, 1933~ IBGE     
#> 12 `read_statistic~ Statistical Grid of~ 2010                          IBGE     
#> 13 `read_metro_are~ Metropolitan areas   1970, 2001, 2002, 2003, 2005~ IBGE     
#> 14 `read_urban_are~ Urban footprints     2005, 2015                    IBGE     
#> 15 `read_amazon`    Brazil's Legal Amaz~ 2012                          MMA      
#> 16 `read_biomes`    Biomes               2004, 2019                    IBGE     
#> 17 `read_conservat~ Environmental Conse~ 201909                        MMA      
#> 18 `read_disaster_~ Disaster risk areas  2010                          CEMADEN ~
#> 19 `read_indigenou~ Indigenous lands     201907                        FUNAI    
#> 20 `read_semiarid`  Semi Arid region     2005, 2017                    IBGE     
#> 21 `read_health_fa~ Health facilities    2015                          CNES, Da~
#> # ... with 1 more row
…
